{
  "variables": {
    "aws_access_key": "{{env `aws_access_key`}}",
    "aws_secret_key": "{{env `aws_secret_key`}}"
  },
  "builders": [
    {
      "type": "amazon-ebs",
      "access_key": "{{user `aws_access_key`}}",
      "secret_key": "{{user `aws_secret_key`}}",
      "region": "us-west-1",
      "source_ami": "ami-df6a8b9b",
      "instance_type": "t2.micro",
      "ssh_username": "ubuntu",
      "ami_name": "packer-jenkins {{timestamp}}"
    }
  ],
  "provisioners": [
    {
      "type": "chef-solo",
      "cookbook_paths": [
        "../chef/cookbooks"
      ],
      "roles_path": "../chef/roles",
      "run_list": [
        "role[jenkins]"
      ]
    }
  ],
  "post-processors": [
    "vagrant"
  ]
}